<?xml version="1.0" encoding="utf-8"?>
<!-- Generator: Adobe Illustrator 19.2.1, SVG Export Plug-In . SVG Version: 6.00 Build 0)  -->
<!DOCTYPE svg PUBLIC "-//W3C//DTD SVG 1.1//EN" "http://www.w3.org/Graphics/SVG/1.1/DTD/svg11.dtd">
<svg version="1.1" id="Capa_1" xmlns="http://www.w3.org/2000/svg" xmlns:xlink="http://www.w3.org/1999/xlink" x="0px" y="0px"
	 viewBox="0 0 83.6 72.3" style="enable-background:new 0 0 83.6 72.3;" xml:space="preserve">
<style type="text/css">
	.st0{fill:none;stroke:#D0BE81;stroke-linecap:round;stroke-linejoin:round;stroke-miterlimit:10;}
</style>
<path class="st0" d="M22.2,58.9c5.1,4.2,11.4,8.4,19.2,12.7c43.2-22.9,41.3-46.4,39.7-53.1c-2.4-9.8-10.7-16.9-19.9-17
	c-6.9,0-13.1,3.8-17.6,10.9c-0.4,0.6-1.1,1-1.8,1c-0.7,0-1.4-0.4-1.8-1C35.5,5.3,29.4,1.4,22.5,1.3C13.3,1.3,4.8,8.3,2.4,18
	c-1.3,5.2-2.9,20.5,16.5,38L22.2,58.9z"/>
</svg>
