<?xml version="1.0" encoding="utf-8"?>
<!-- Generator: Adobe Illustrator 19.2.1, SVG Export Plug-In . SVG Version: 6.00 Build 0)  -->
<!DOCTYPE svg PUBLIC "-//W3C//DTD SVG 1.1//EN" "http://www.w3.org/Graphics/SVG/1.1/DTD/svg11.dtd">
<svg version="1.1" id="Capa_1" xmlns="http://www.w3.org/2000/svg" xmlns:xlink="http://www.w3.org/1999/xlink" x="0px" y="0px"
	 viewBox="0 0 150 101.6" style="enable-background:new 0 0 150 101.6;" xml:space="preserve">
<style type="text/css">
	.st0{fill:none;stroke:#D0BE81;stroke-linecap:round;stroke-linejoin:round;stroke-miterlimit:10;}
</style>
<g>
	<g>
		<path class="st0" d="M122.7,16.5l-6.1-13.9c-0.4-0.9-1.2-1.6-2.2-1.8c-1-0.2-2,0.1-2.7,0.9L80.8,34c-0.1,0.1-0.1,0.1-0.1,0.2"/>
		<path class="st0" d="M90.7,58.4C91.7,58.5,90.6,58.4,90.7,58.4l44.8,1.4c0.4,0,0.8-0.1,1.2-0.2c0.5-0.2,1-0.6,1.3-1.1
			c0.6-0.8,0.7-1.9,0.3-2.8l-5.8-14.1"/>
		<path class="st0" d="M59.5,43.2c-0.1,0-0.2,0-0.2,0l-45.5-1.4c-1,0-2,0.5-2.5,1.3c-0.6,0.8-0.7,1.9-0.3,2.8l5.9,14l-1.6,0.7
			L3.4,65.4c-1.5,0.6-2.3,2.4-1.6,3.9l7.9,19.4c0.6,1.5,2.4,2.3,3.9,1.6L27,84.8L32.6,99c0.4,0.9,1.2,1.6,2.2,1.8
			c0.6,0.1,1.2,0,1.7-0.2c0.4-0.2,0.7-0.4,1-0.7L69,67c0.1-0.1,0.1-0.1,0.2-0.2"/>
		<line class="st0" x1="16.6" y1="59.4" x2="27.3" y2="85.5"/>
		<line class="st0" x1="122.7" y1="16.5" x2="132.6" y2="41.6"/>
		<path class="st0" d="M90.4,60.3l-19.6,8c-0.5,0.2-1.1,0-1.3-0.5L59.1,42.4c-0.2-0.5,0-1.1,0.5-1.3l19.6-8c0.5-0.2,1.1,0,1.3,0.5
			l10.4,25.3C91.1,59.5,90.9,60,90.4,60.3z"/>
		<path class="st0" d="M65.1,56.6"/>
		<path class="st0" d="M48.9,63.2"/>
	</g>
	<path class="st0" d="M132.9,41.5l1.3-0.5l11.8-4.8c1.5-0.6,2.3-2.4,1.6-3.9l-7.9-19.4c-0.6-1.5-2.4-2.3-3.9-1.6L123,16.4"/>
	<path class="st0" d="M88.5,80.6"/>
</g>
</svg>
