<?xml version="1.0" encoding="utf-8"?>
<!-- Generator: Adobe Illustrator 19.2.1, SVG Export Plug-In . SVG Version: 6.00 Build 0)  -->
<!DOCTYPE svg PUBLIC "-//W3C//DTD SVG 1.1//EN" "http://www.w3.org/Graphics/SVG/1.1/DTD/svg11.dtd">
<svg version="1.1" id="Capa_1" xmlns="http://www.w3.org/2000/svg" xmlns:xlink="http://www.w3.org/1999/xlink" x="0px" y="0px"
	 viewBox="0 0 156.4 52" style="enable-background:new 0 0 156.4 52;" xml:space="preserve">
<style type="text/css">
	.st0{fill:#414141;stroke:url(#SVGID_1_);stroke-width:0.4;stroke-miterlimit:10;}
	.st1{fill:#414141;stroke:url(#SVGID_2_);stroke-width:0.4;stroke-miterlimit:10;}
	.st2{fill:#414141;stroke:url(#SVGID_3_);stroke-width:0.4;stroke-miterlimit:10;}
	.st3{fill:#414141;stroke:url(#SVGID_4_);stroke-width:0.4;stroke-miterlimit:10;}
	.st4{fill:url(#SVGID_5_);}
	.st5{fill:url(#SVGID_6_);}
	.st6{fill:url(#SVGID_7_);}
</style>
<linearGradient id="SVGID_1_" gradientUnits="userSpaceOnUse" x1="0" y1="26.3333" x2="53.8159" y2="26.3333">
	<stop  offset="0" style="stop-color:#B39C47"/>
	<stop  offset="1" style="stop-color:#CCB180"/>
</linearGradient>
<line class="st0" x1="0" y1="26.3" x2="53.8" y2="26.3"/>
<linearGradient id="SVGID_2_" gradientUnits="userSpaceOnUse" x1="11.4185" y1="32.812" x2="43.0731" y2="32.812">
	<stop  offset="0" style="stop-color:#B39C47"/>
	<stop  offset="1" style="stop-color:#CCB180"/>
</linearGradient>
<line class="st1" x1="11.4" y1="32.8" x2="43.1" y2="32.8"/>
<linearGradient id="SVGID_3_" gradientUnits="userSpaceOnUse" x1="110.414" y1="19.7287" x2="142.0686" y2="19.7287">
	<stop  offset="0" style="stop-color:#B39C47"/>
	<stop  offset="1" style="stop-color:#CCB180"/>
</linearGradient>
<line class="st2" x1="110.4" y1="19.7" x2="142.1" y2="19.7"/>
<linearGradient id="SVGID_4_" gradientUnits="userSpaceOnUse" x1="100.3091" y1="26.3564" x2="154.125" y2="26.3564">
	<stop  offset="0" style="stop-color:#B39C47"/>
	<stop  offset="1" style="stop-color:#CCB180"/>
</linearGradient>
<line class="st3" x1="100.3" y1="26.4" x2="154.1" y2="26.4"/>
<g>
	<linearGradient id="SVGID_5_" gradientUnits="userSpaceOnUse" x1="53.1513" y1="28.3721" x2="100.307" y2="28.3721">
		<stop  offset="0" style="stop-color:#B39C47"/>
		<stop  offset="1" style="stop-color:#CCB180"/>
	</linearGradient>
	<path class="st4" d="M84.6,24.7c-0.5,0-1.1,0.4-1.4,0.9c-0.7,0.9-1.6,2.4-2.6,4.2c-0.4,0.8-0.9,2.2-1.3,2.2h4.3l0.5-1.2
		c0.5-1.3,1.4-3.6,1.4-4.9C85.4,25.1,85.2,24.7,84.6,24.7z"/>
	<linearGradient id="SVGID_6_" gradientUnits="userSpaceOnUse" x1="53.1513" y1="25.2449" x2="100.307" y2="25.2449">
		<stop  offset="0" style="stop-color:#B39C47"/>
		<stop  offset="1" style="stop-color:#CCB180"/>
	</linearGradient>
	<path class="st5" d="M66.4,27.7c0,0.3,0.1,0.4,0.3,0.4c1,0,1.3-1,2.8-5.8c-0.1,0.2-0.2,0.3-0.5,0.6C68.4,23.8,66.4,26.5,66.4,27.7z
		"/>
	<linearGradient id="SVGID_7_" gradientUnits="userSpaceOnUse" x1="53.1513" y1="26.3333" x2="100.307" y2="26.3333">
		<stop  offset="0" style="stop-color:#B39C47"/>
		<stop  offset="1" style="stop-color:#CCB180"/>
	</linearGradient>
	<path class="st6" d="M76.7,2.8c-13,0-23.6,10.6-23.6,23.6s10.6,23.6,23.6,23.6s23.6-10.6,23.6-23.6S89.8,2.8,76.7,2.8z M84.9,31.2
		c-0.5,1.3-0.8,2.3-0.9,2.5c-0.8,2.2-2.3,6.1-2.3,7.2c0,1.3,0.4,1.9,1.4,1.9c0.2,0,0.4,0.2,0.4,0.5c0,0.2-0.2,0.4-0.4,0.4
		c-1.6,0-2.3-1.1-2.3-2.8c0-1.3,1.5-5.4,2.3-7.6l0.1-0.3h-4.4c-1.7,3-3.8,6.3-6.4,6.3c-1.7,0-3.2-1.1-3.2-2.8c0-1.8,1.6-3.4,3.2-3.4
		c0.3,0,0.7,0.1,1,0.2c0.2,0.1,0.3,0.2,0.3,0.4c0,0.2-0.2,0.4-0.4,0.4c-0.1,0-0.5-0.2-0.8-0.2c-1.2,0-2.3,1.3-2.3,2.6
		c0,1.2,1,2,2.3,2c2.1,0,3.9-2.9,5.3-5.2l-1,0c-0.1,0-0.1,0-0.2-0.1c-1.3-0.1-2.1-1-2-2.7c0.1-1.1,1.3-4.4,2.7-8.5
		c1.1-3.3,1.5-4.7,1.5-5.9c0-1.1-0.5-1.8-1.7-1.8c-2,0-4,2.8-5.7,5.3C68.9,27,68.6,29,66.7,29c-0.7,0-1.1-0.5-1.1-1.3
		c0-1.5,2.2-4.3,2.8-5.2l2.2-3.3l1.7-5.1c-1.7,1.2-4.2,3-6.3,3c-2,0-3.5-1.3-3.3-3.3c0-0.3,0.2-0.4,0.4-0.4c0.2,0,0.4,0.1,0.4,0.4
		c0,1.7,0.8,2.4,2.5,2.4c1.9,0,4.3-1.8,5.8-2.9c0.4-0.3,0.7-0.5,1-0.8c0.1,0,0.1-0.1,0.2-0.1c0.1,0,0.3,0,0.3,0.2
		c0.1,0.1,0.1,0.3,0.1,0.4l-1.2,3.7c1.5-2,2.9-3.4,4.8-3.4c1.9,0,2.6,1,2.6,2.6c0,1.3-0.4,2.8-1.5,6.1c-0.9,2.7-2.5,7.1-2.6,8.2
		c-0.2,1.1,0.2,1.8,1.1,1.9c0,0,0.1,0,0.1,0l1.6,0c0.5-0.9,1-1.9,1.5-2.8c1-1.8,1.9-3.5,2.6-4.5c0.6-0.7,1.4-1.2,2.2-1.2
		c1.3,0,1.7,0.8,1.7,2C86.3,27.4,85.5,29.6,84.9,31.2z"/>
</g>
</svg>
